%YAML 1.1
%TAG !u! tag:unity3d.com,2011:
--- !u!29 &1
OcclusionCullingSettings:
  m_ObjectHideFlags: 0
  serializedVersion: 2
  m_OcclusionBakeSettings:
    smallestOccluder: 5
    smallestHole: 0.25
    backfaceThreshold: 100
  m_SceneGUID: 00000000000000000000000000000000
  m_OcclusionCullingData: {fileID: 0}
--- !u!104 &2
RenderSettings:
  m_ObjectHideFlags: 0
  serializedVersion: 9
  m_Fog: 0
  m_FogColor: {r: 0.5, g: 0.5, b: 0.5, a: 1}
  m_FogMode: 3
  m_FogDensity: 0.01
  m_LinearFogStart: 0
  m_LinearFogEnd: 300
  m_AmbientSkyColor: {r: 0.212, g: 0.227, b: 0.259, a: 1}
  m_AmbientEquatorColor: {r: 0.114, g: 0.125, b: 0.133, a: 1}
  m_AmbientGroundColor: {r: 0.047, g: 0.043, b: 0.035, a: 1}
  m_AmbientIntensity: 1
  m_AmbientMode: 0
  m_SubtractiveShadowColor: {r: 0.42, g: 0.478, b: 0.627, a: 1}
  m_SkyboxMaterial: {fileID: 10304, guid: 0000000000000000f000000000000000, type: 0}
  m_HaloStrength: 0.5
  m_FlareStrength: 1
  m_FlareFadeSpeed: 3
  m_HaloTexture: {fileID: 0}
  m_SpotCookie: {fileID: 10001, guid: 0000000000000000e000000000000000, type: 0}
  m_DefaultReflectionMode: 0
  m_DefaultReflectionResolution: 128
  m_ReflectionBounces: 1
  m_ReflectionIntensity: 1
  m_CustomReflection: {fileID: 0}
  m_Sun: {fileID: 0}
  m_IndirectSpecularColor: {r: 0, g: 0, b: 0, a: 1}
  m_UseRadianceAmbientProbe: 0
--- !u!157 &3
LightmapSettings:
  m_ObjectHideFlags: 0
  serializedVersion: 12
  m_GIWorkflowMode: 1
  m_GISettings:
    serializedVersion: 2
    m_BounceScale: 1
    m_IndirectOutputScale: 1
    m_AlbedoBoost: 1
    m_EnvironmentLightingMode: 0
    m_EnableBakedLightmaps: 1
    m_EnableRealtimeLightmaps: 0
  m_LightmapEditorSettings:
    serializedVersion: 12
    m_Resolution: 2
    m_BakeResolution: 40
    m_AtlasSize: 1024
    m_AO: 0
    m_AOMaxDistance: 1
    m_CompAOExponent: 1
    m_CompAOExponentDirect: 0
    m_ExtractAmbientOcclusion: 0
    m_Padding: 2
    m_LightmapParameters: {fileID: 0}
    m_LightmapsBakeMode: 1
    m_TextureCompression: 1
    m_FinalGather: 0
    m_FinalGatherFiltering: 1
    m_FinalGatherRayCount: 256
    m_ReflectionCompression: 2
    m_MixedBakeMode: 2
    m_BakeBackend: 1
    m_PVRSampling: 1
    m_PVRDirectSampleCount: 32
    m_PVRSampleCount: 512
    m_PVRBounces: 2
    m_PVREnvironmentSampleCount: 256
    m_PVREnvironmentReferencePointCount: 2048
    m_PVRFilteringMode: 1
    m_PVRDenoiserTypeDirect: 1
    m_PVRDenoiserTypeIndirect: 1
    m_PVRDenoiserTypeAO: 1
    m_PVRFilterTypeDirect: 0
    m_PVRFilterTypeIndirect: 0
    m_PVRFilterTypeAO: 0
    m_PVREnvironmentMIS: 1
    m_PVRCulling: 1
    m_PVRFilteringGaussRadiusDirect: 1
    m_PVRFilteringGaussRadiusIndirect: 5
    m_PVRFilteringGaussRadiusAO: 2
    m_PVRFilteringAtrousPositionSigmaDirect: 0.5
    m_PVRFilteringAtrousPositionSigmaIndirect: 2
    m_PVRFilteringAtrousPositionSigmaAO: 1
    m_ExportTrainingData: 0
    m_TrainingDataDestination: TrainingData
    m_LightProbeSampleCountMultiplier: 4
  m_LightingDataAsset: {fileID: 0}
  m_LightingSettings: {fileID: 0}
--- !u!196 &4
NavMeshSettings:
  serializedVersion: 2
  m_ObjectHideFlags: 0
  m_BuildSettings:
    serializedVersion: 2
    agentTypeID: 0
    agentRadius: 0.5
    agentHeight: 2
    agentSlope: 45
    agentClimb: 0.4
    ledgeDropHeight: 0
    maxJumpAcrossDistance: 0
    minRegionArea: 2
    manualCellSize: 0
    cellSize: 0.16666667
    manualTileSize: 0
    tileSize: 256
    accuratePlacement: 0
    maxJobWorkers: 0
    preserveTilesOutsideBounds: 0
    debug:
      m_Flags: 0
  m_NavMeshData: {fileID: 0}
--- !u!1001 &14647509
PrefabInstance:
  m_ObjectHideFlags: 0
  serializedVersion: 2
  m_Modification:
    m_TransformParent: {fileID: 0}
    m_Modifications:
    - target: {fileID: 5979900165325714537, guid: 4f929592315a7064ab726a546e5989d2, type: 3}
      propertyPath: m_LocalPosition.x
      value: -2.640387
      objectReference: {fileID: 0}
    - target: {fileID: 5979900165325714537, guid: 4f929592315a7064ab726a546e5989d2, type: 3}
      propertyPath: m_LocalPosition.y
      value: 1.7098541
      objectReference: {fileID: 0}
    - target: {fileID: 5979900165325714537, guid: 4f929592315a7064ab726a546e5989d2, type: 3}
      propertyPath: m_LocalPosition.z
      value: 0.84918404
      objectReference: {fileID: 0}
    - target: {fileID: 5979900165325714537, guid: 4f929592315a7064ab726a546e5989d2, type: 3}
      propertyPath: m_LocalRotation.x
      value: 0
      objectReference: {fileID: 0}
    - target: {fileID: 5979900165325714537, guid: 4f929592315a7064ab726a546e5989d2, type: 3}
      propertyPath: m_LocalRotation.y
      value: 0
      objectReference: {fileID: 0}
    - target: {fileID: 5979900165325714537, guid: 4f929592315a7064ab726a546e5989d2, type: 3}
      propertyPath: m_LocalRotation.z
      value: 0
      objectReference: {fileID: 0}
    - target: {fileID: 5979900165325714537, guid: 4f929592315a7064ab726a546e5989d2, type: 3}
      propertyPath: m_LocalRotation.w
      value: 1
      objectReference: {fileID: 0}
    - target: {fileID: 5979900165325714537, guid: 4f929592315a7064ab726a546e5989d2, type: 3}
      propertyPath: m_RootOrder
      value: 3
      objectReference: {fileID: 0}
    - target: {fileID: 5979900165325714537, guid: 4f929592315a7064ab726a546e5989d2, type: 3}
      propertyPath: m_LocalEulerAnglesHint.x
      value: 0
      objectReference: {fileID: 0}
    - target: {fileID: 5979900165325714537, guid: 4f929592315a7064ab726a546e5989d2, type: 3}
      propertyPath: m_LocalEulerAnglesHint.y
      value: 0
      objectReference: {fileID: 0}
    - target: {fileID: 5979900165325714537, guid: 4f929592315a7064ab726a546e5989d2, type: 3}
      propertyPath: m_LocalEulerAnglesHint.z
      value: 0
      objectReference: {fileID: 0}
    - target: {fileID: 5979900165325714546, guid: 4f929592315a7064ab726a546e5989d2, type: 3}
      propertyPath: m_Name
      value: Hero
      objectReference: {fileID: 0}
    m_RemovedComponents: []
  m_SourcePrefab: {fileID: 100100000, guid: 4f929592315a7064ab726a546e5989d2, type: 3}
--- !u!1 &246803126
GameObject:
  m_ObjectHideFlags: 0
  m_CorrespondingSourceObject: {fileID: 0}
  m_PrefabInstance: {fileID: 0}
  m_PrefabAsset: {fileID: 0}
  serializedVersion: 6
  m_Component:
  - component: {fileID: 246803130}
  - component: {fileID: 246803129}
  - component: {fileID: 246803128}
  - component: {fileID: 246803127}
  m_Layer: 0
  m_Name: Plane
  m_TagString: Untagged
  m_Icon: {fileID: 0}
  m_NavMeshLayer: 0
  m_StaticEditorFlags: 0
  m_IsActive: 1
--- !u!64 &246803127
MeshCollider:
  m_ObjectHideFlags: 0
  m_CorrespondingSourceObject: {fileID: 0}
  m_PrefabInstance: {fileID: 0}
  m_PrefabAsset: {fileID: 0}
  m_GameObject: {fileID: 246803126}
  m_Material: {fileID: 0}
  m_IsTrigger: 0
  m_Enabled: 1
  serializedVersion: 4
  m_Convex: 0
  m_CookingOptions: 30
  m_Mesh: {fileID: 10209, guid: 0000000000000000e000000000000000, type: 0}
--- !u!23 &246803128
MeshRenderer:
  m_ObjectHideFlags: 0
  m_CorrespondingSourceObject: {fileID: 0}
  m_PrefabInstance: {fileID: 0}
  m_PrefabAsset: {fileID: 0}
  m_GameObject: {fileID: 246803126}
  m_Enabled: 1
  m_CastShadows: 1
  m_ReceiveShadows: 1
  m_DynamicOccludee: 1
  m_MotionVectors: 1
  m_LightProbeUsage: 1
  m_ReflectionProbeUsage: 1
  m_RayTracingMode: 2
  m_RayTraceProcedural: 0
  m_RenderingLayerMask: 1
  m_RendererPriority: 0
  m_Materials:
  - {fileID: 2100000, guid: 8a12d441be364e0469c90c6e2f388828, type: 2}
  m_StaticBatchInfo:
    firstSubMesh: 0
    subMeshCount: 0
  m_StaticBatchRoot: {fileID: 0}
  m_ProbeAnchor: {fileID: 0}
  m_LightProbeVolumeOverride: {fileID: 0}
  m_ScaleInLightmap: 1
  m_ReceiveGI: 1
  m_PreserveUVs: 0
  m_IgnoreNormalsForChartDetection: 0
  m_ImportantGI: 0
  m_StitchLightmapSeams: 1
  m_SelectedEditorRenderState: 3
  m_MinimumChartSize: 4
  m_AutoUVMaxDistance: 0.5
  m_AutoUVMaxAngle: 89
  m_LightmapParameters: {fileID: 0}
  m_SortingLayerID: 0
  m_SortingLayer: 0
  m_SortingOrder: 0
  m_AdditionalVertexStreams: {fileID: 0}
--- !u!33 &246803129
MeshFilter:
  m_ObjectHideFlags: 0
  m_CorrespondingSourceObject: {fileID: 0}
  m_PrefabInstance: {fileID: 0}
  m_PrefabAsset: {fileID: 0}
  m_GameObject: {fileID: 246803126}
  m_Mesh: {fileID: 10209, guid: 0000000000000000e000000000000000, type: 0}
--- !u!4 &246803130
Transform:
  m_ObjectHideFlags: 0
  m_CorrespondingSourceObject: {fileID: 0}
  m_PrefabInstance: {fileID: 0}
  m_PrefabAsset: {fileID: 0}
  m_GameObject: {fileID: 246803126}
  m_LocalRotation: {x: 0, y: 0, z: 0, w: 1}
  m_LocalPosition: {x: 0, y: 0, z: -2.11}
  m_LocalScale: {x: 21, y: 21, z: 21}
  m_Children: []
  m_Father: {fileID: 0}
  m_RootOrder: 2
  m_LocalEulerAnglesHint: {x: 0, y: 0, z: 0}
--- !u!4 &729135526 stripped
Transform:
  m_CorrespondingSourceObject: {fileID: 5979900165325714537, guid: 4f929592315a7064ab726a546e5989d2, type: 3}
  m_PrefabInstance: {fileID: 14647509}
  m_PrefabAsset: {fileID: 0}
--- !u!1001 &1012154297
PrefabInstance:
  m_ObjectHideFlags: 0
  serializedVersion: 2
  m_Modification:
    m_TransformParent: {fileID: 1718572848}
    m_Modifications:
    - target: {fileID: -8679921383154817045, guid: 686fcefcd5794724c926648d647f7256, type: 3}
      propertyPath: m_LocalPosition.x
      value: 0
      objectReference: {fileID: 0}
    - target: {fileID: -8679921383154817045, guid: 686fcefcd5794724c926648d647f7256, type: 3}
      propertyPath: m_LocalPosition.y
      value: 0
      objectReference: {fileID: 0}
    - target: {fileID: -8679921383154817045, guid: 686fcefcd5794724c926648d647f7256, type: 3}
      propertyPath: m_LocalPosition.z
      value: 0
      objectReference: {fileID: 0}
    - target: {fileID: -8679921383154817045, guid: 686fcefcd5794724c926648d647f7256, type: 3}
      propertyPath: m_LocalRotation.x
      value: 0
      objectReference: {fileID: 0}
    - target: {fileID: -8679921383154817045, guid: 686fcefcd5794724c926648d647f7256, type: 3}
      propertyPath: m_LocalRotation.y
      value: 0
      objectReference: {fileID: 0}
    - target: {fileID: -8679921383154817045, guid: 686fcefcd5794724c926648d647f7256, type: 3}
      propertyPath: m_LocalRotation.z
      value: 0
      objectReference: {fileID: 0}
    - target: {fileID: -8679921383154817045, guid: 686fcefcd5794724c926648d647f7256, type: 3}
      propertyPath: m_LocalRotation.w
      value: 1
      objectReference: {fileID: 0}
    - target: {fileID: -8679921383154817045, guid: 686fcefcd5794724c926648d647f7256, type: 3}
      propertyPath: m_RootOrder
      value: 8
      objectReference: {fileID: 0}
    - target: {fileID: -8679921383154817045, guid: 686fcefcd5794724c926648d647f7256, type: 3}
      propertyPath: m_LocalEulerAnglesHint.x
      value: 0
      objectReference: {fileID: 0}
    - target: {fileID: -8679921383154817045, guid: 686fcefcd5794724c926648d647f7256, type: 3}
      propertyPath: m_LocalEulerAnglesHint.y
      value: 0
      objectReference: {fileID: 0}
    - target: {fileID: -8679921383154817045, guid: 686fcefcd5794724c926648d647f7256, type: 3}
      propertyPath: m_LocalEulerAnglesHint.z
      value: 0
      objectReference: {fileID: 0}
    - target: {fileID: 919132149155446097, guid: 686fcefcd5794724c926648d647f7256, type: 3}
      propertyPath: m_Name
      value: Idle
      objectReference: {fileID: 0}
    m_RemovedComponents: []
  m_SourcePrefab: {fileID: 100100000, guid: 686fcefcd5794724c926648d647f7256, type: 3}
--- !u!1 &1501900153
GameObject:
  m_ObjectHideFlags: 0
  m_CorrespondingSourceObject: {fileID: 0}
  m_PrefabInstance: {fileID: 0}
  m_PrefabAsset: {fileID: 0}
  serializedVersion: 6
  m_Component:
  - component: {fileID: 1501900155}
  - component: {fileID: 1501900154}
  m_Layer: 0
  m_Name: Directional Light
  m_TagString: Untagged
  m_Icon: {fileID: 0}
  m_NavMeshLayer: 0
  m_StaticEditorFlags: 0
  m_IsActive: 1
--- !u!108 &1501900154
Light:
  m_ObjectHideFlags: 0
  m_CorrespondingSourceObject: {fileID: 0}
  m_PrefabInstance: {fileID: 0}
  m_PrefabAsset: {fileID: 0}
  m_GameObject: {fileID: 1501900153}
  m_Enabled: 1
  serializedVersion: 10
  m_Type: 1
  m_Shape: 0
  m_Color: {r: 1, g: 1, b: 1, a: 1}
  m_Intensity: 1
  m_Range: 10
  m_SpotAngle: 30
  m_InnerSpotAngle: 21.80208
  m_CookieSize: 10
  m_Shadows:
    m_Type: 2
    m_Resolution: -1
    m_CustomResolution: -1
    m_Strength: 1
    m_Bias: 0.12
    m_NormalBias: 0.4
    m_NearPlane: 0.1
    m_CullingMatrixOverride:
      e00: 1
      e01: 0
      e02: 0
      e03: 0
      e10: 0
      e11: 1
      e12: 0
      e13: 0
      e20: 0
      e21: 0
      e22: 1
      e23: 0
      e30: 0
      e31: 0
      e32: 0
      e33: 1
    m_UseCullingMatrixOverride: 0
  m_Cookie: {fileID: 0}
  m_DrawHalo: 0
  m_Flare: {fileID: 0}
  m_RenderMode: 0
  m_CullingMask:
    serializedVersion: 2
    m_Bits: 4294967295
  m_RenderingLayerMask: 1
  m_Lightmapping: 4
  m_LightShadowCasterMode: 0
  m_AreaSize: {x: 1, y: 1}
  m_BounceIntensity: 1
  m_ColorTemperature: 6570
  m_UseColorTemperature: 0
  m_BoundingSphereOverride: {x: 0, y: 0, z: 0, w: 0}
  m_UseBoundingSphereOverride: 0
  m_ShadowRadius: 0
  m_ShadowAngle: 0
--- !u!4 &1501900155
Transform:
  m_ObjectHideFlags: 0
  m_CorrespondingSourceObject: {fileID: 0}
  m_PrefabInstance: {fileID: 0}
  m_PrefabAsset: {fileID: 0}
  m_GameObject: {fileID: 1501900153}
  m_LocalRotation: {x: 0.5184528, y: -0.40447068, z: 0.6892332, w: 0.30424967}
  m_LocalPosition: {x: 5.88, y: 4.98, z: 0.29}
  m_LocalScale: {x: 1, y: 1, z: 1}
  m_Children: []
  m_Father: {fileID: 0}
  m_RootOrder: 1
  m_LocalEulerAnglesHint: {x: 60.812, y: 73.902, z: 180}
--- !u!1 &1718572846 stripped
GameObject:
  m_CorrespondingSourceObject: {fileID: 919132149155446097, guid: d94ce7ec0918cd54db832b6c3c30125e, type: 3}
  m_PrefabInstance: {fileID: 2013138353}
  m_PrefabAsset: {fileID: 0}
--- !u!95 &1718572847
Animator:
  serializedVersion: 3
  m_ObjectHideFlags: 0
  m_CorrespondingSourceObject: {fileID: 0}
  m_PrefabInstance: {fileID: 0}
  m_PrefabAsset: {fileID: 0}
  m_GameObject: {fileID: 1718572846}
  m_Enabled: 1
  m_Avatar: {fileID: 0}
  m_Controller: {fileID: 9100000, guid: 5cc0cf7526e0c564591cfb844b870e44, type: 2}
  m_CullingMode: 0
  m_UpdateMode: 0
  m_ApplyRootMotion: 0
  m_LinearVelocityBlending: 0
  m_WarningMessage: 
  m_HasTransformHierarchy: 1
  m_AllowConstantClipSamplingOptimization: 1
  m_KeepAnimatorControllerStateOnDisable: 0
--- !u!4 &1718572848 stripped
Transform:
  m_CorrespondingSourceObject: {fileID: -8679921383154817045, guid: d94ce7ec0918cd54db832b6c3c30125e, type: 3}
  m_PrefabInstance: {fileID: 2013138353}
  m_PrefabAsset: {fileID: 0}
--- !u!114 &1718572849
MonoBehaviour:
  m_ObjectHideFlags: 0
  m_CorrespondingSourceObject: {fileID: 0}
  m_PrefabInstance: {fileID: 0}
  m_PrefabAsset: {fileID: 0}
  m_GameObject: {fileID: 1718572846}
  m_Enabled: 1
  m_EditorHideFlags: 0
  m_Script: {fileID: 11500000, guid: fddfb96760717fb4d96b943c22fcc35d, type: 3}
  m_Name: 
  m_EditorClassIdentifier: 
  radius: 3
  player: {fileID: 729135526}
--- !u!1001 &2013138353
PrefabInstance:
  m_ObjectHideFlags: 0
  serializedVersion: 2
  m_Modification:
    m_TransformParent: {fileID: 0}
    m_Modifications:
    - target: {fileID: -8679921383154817045, guid: d94ce7ec0918cd54db832b6c3c30125e, type: 3}
      propertyPath: m_LocalPosition.x
      value: 7.24
      objectReference: {fileID: 0}
    - target: {fileID: -8679921383154817045, guid: d94ce7ec0918cd54db832b6c3c30125e, type: 3}
      propertyPath: m_LocalPosition.y
      value: 0.23
      objectReference: {fileID: 0}
    - target: {fileID: -8679921383154817045, guid: d94ce7ec0918cd54db832b6c3c30125e, type: 3}
      propertyPath: m_LocalPosition.z
      value: 1.71
      objectReference: {fileID: 0}
    - target: {fileID: -8679921383154817045, guid: d94ce7ec0918cd54db832b6c3c30125e, type: 3}
      propertyPath: m_LocalRotation.x
      value: 0.00877384
      objectReference: {fileID: 0}
    - target: {fileID: -8679921383154817045, guid: d94ce7ec0918cd54db832b6c3c30125e, type: 3}
      propertyPath: m_LocalRotation.y
      value: 0.9236367
      objectReference: {fileID: 0}
    - target: {fileID: -8679921383154817045, guid: d94ce7ec0918cd54db832b6c3c30125e, type: 3}
      propertyPath: m_LocalRotation.z
      value: 0.021181893
      objectReference: {fileID: 0}
    - target: {fileID: -8679921383154817045, guid: d94ce7ec0918cd54db832b6c3c30125e, type: 3}
      propertyPath: m_LocalRotation.w
      value: -0.3825829
      objectReference: {fileID: 0}
    - target: {fileID: -8679921383154817045, guid: d94ce7ec0918cd54db832b6c3c30125e, type: 3}
      propertyPath: m_RootOrder
      value: 0
      objectReference: {fileID: 0}
    - target: {fileID: -8679921383154817045, guid: d94ce7ec0918cd54db832b6c3c30125e, type: 3}
      propertyPath: m_LocalEulerAnglesHint.x
      value: -2.627
      objectReference: {fileID: 0}
    - target: {fileID: -8679921383154817045, guid: d94ce7ec0918cd54db832b6c3c30125e, type: 3}
      propertyPath: m_LocalEulerAnglesHint.y
      value: -135
      objectReference: {fileID: 0}
    - target: {fileID: -8679921383154817045, guid: d94ce7ec0918cd54db832b6c3c30125e, type: 3}
      propertyPath: m_LocalEulerAnglesHint.z
      value: 0
      objectReference: {fileID: 0}
    - target: {fileID: -2018755765419313006, guid: d94ce7ec0918cd54db832b6c3c30125e, type: 3}
      propertyPath: m_LocalRotation.x
      value: 0.000000024214387
      objectReference: {fileID: 0}
    - target: {fileID: -2018755765419313006, guid: d94ce7ec0918cd54db832b6c3c30125e, type: 3}
      propertyPath: m_LocalRotation.y
      value: -0
      objectReference: {fileID: 0}
    - target: {fileID: -2018755765419313006, guid: d94ce7ec0918cd54db832b6c3c30125e, type: 3}
      propertyPath: m_LocalRotation.z
      value: 0.109914914
      objectReference: {fileID: 0}
    - target: {fileID: -2018755765419313006, guid: d94ce7ec0918cd54db832b6c3c30125e, type: 3}
      propertyPath: m_LocalRotation.w
      value: 0.993941
      objectReference: {fileID: 0}
    - target: {fileID: -2018755765419313006, guid: d94ce7ec0918cd54db832b6c3c30125e, type: 3}
      propertyPath: m_LocalPosition.x
      value: 0.115824595
      objectReference: {fileID: 0}
    - target: {fileID: -2018755765419313006, guid: d94ce7ec0918cd54db832b6c3c30125e, type: 3}
      propertyPath: m_LocalPosition.y
      value: 0.012851926
      objectReference: {fileID: 0}
    - target: {fileID: -2018755765419313006, guid: d94ce7ec0918cd54db832b6c3c30125e, type: 3}
      propertyPath: m_LocalPosition.z
      value: 0.00000013411045
      objectReference: {fileID: 0}
    - target: {fileID: -2018755765419313006, guid: d94ce7ec0918cd54db832b6c3c30125e, type: 3}
      propertyPath: m_LocalEulerAnglesHint.z
      value: 12.621
      objectReference: {fileID: 0}
    - target: {fileID: 919132149155446097, guid: d94ce7ec0918cd54db832b6c3c30125e, type: 3}
      propertyPath: m_Name
      value: NPC 1
      objectReference: {fileID: 0}
    m_RemovedComponents: []
  m_SourcePrefab: {fileID: 100100000, guid: d94ce7ec0918cd54db832b6c3c30125e, type: 3}
